version="0.9"
tags={
	"Balance"
	"Gameplay"
	"Historical"
	"Warfare"
	"Decisions"
	"Events"
	"Fixes"
	"Religion"
}
name="Sinews of War"
picture="thumbnail.png"
supported_version="1.4.4"
path="path/to/Crusader Kings III/mod/SW-Core"
remote_file_id="2566883856"