﻿#############################################
# DEMD Population System
# by Vertimnus (NaniteSystems)
# This file was compiled by a machine from jomini metascript source code.
# It should never be manually edited.
#############################################

annualPulse = {
	every_in_global_list = {
		variable = $list$
    	change_variable = { name = county_weather_fertility_mult add = county_weather_fertility_mult_delta }
        random_list = { 
            100 = {
            }
            40 = {
                change_variable = { name = county_weather_fertility_mult add = 0.01 }
            }
            40 = {
                change_variable = { name = county_weather_fertility_mult add = -0.01 }
            }
            10 = {
                change_variable = { name = county_weather_fertility_mult add = 0.02 }
            }
            10 = {
                change_variable = { name = county_weather_fertility_mult add = -0.02 }
            }
    		1 = {
                change_variable = { name = county_weather_fertility_mult add = 0.04 }
            }
    		1 = {
                change_variable = { name = county_weather_fertility_mult add = -0.04 }
            }
        }
    	every_in_list = { variable = county_provinces
    		limit = { combined_building_level > 0 }
            set_variable = { name = food_districts_max value = prov_food_districts }
        	set_variable = {
        		name = food_producers_max
        		value = {
        			value = var:food_districts_count
        			multiply = demd_jobs_per_district
        		}		
        	}
        	set_variable = {
        		name = knight_capacity_producers_max
        		value = {
        			value = var:food_producers_max
        			multiply = demd_farmer_to_noble_ratio
        		}		
        	}
        	set_variable = { name = food_producers_count value = 0 }
        	set_variable = { name = knight_capacity_producers_count value = 0 }
        	set_variable = { name = unemployed_count value = var:population }
            set_variable = {
                name = temp
                value = {
                    value = var:knight_capacity_producers_max
                    subtract = var:knight_capacity_producers_count
                }
            }
            clamp_variable = { name = temp max = var:unemployed_count min = 0 }
            if = {
                limit = {
                    var:temp = { compare_value > prev.var:knight_capacity_producers_max }
                }
                change_variable = { name = knight_capacity_producers_count add = var:knight_capacity_producers_max }
                change_variable = { name = unemployed_count subtract = var:knight_capacity_producers_max }
            }
            else = {
                change_variable = { name = knight_capacity_producers_count add = var:temp }
                change_variable = { name = unemployed_count subtract = var:temp }
            }
            set_variable = {
                name = temp
                value = {
                    value = var:food_producers_max
                    subtract = var:food_producers_count
                }
            }
            clamp_variable = { name = temp max = var:unemployed_count min = 0 }
            if = {
                limit = {
                    var:temp = { compare_value > prev.var:food_producers_max }
                }
                change_variable = { name = food_producers_count add = var:food_producers_max }
                change_variable = { name = unemployed_count subtract = var:food_producers_max }
            }
            else = {
                change_variable = { name = food_producers_count add = var:temp }
                change_variable = { name = unemployed_count subtract = var:temp }
            }
        	set_variable = {
                name = knight_capacity_produced
                value = {
                    value = knight_capacity_produced_per_capita
                    multiply = var:knight_capacity_producers_count
                }
            }
        	set_variable = { name = food_produced_per_capita value = food_produced_per_capita }
        	set_variable = {
        		name = food_produced
        		value = {
        			value = var:food_produced_per_capita
        			multiply = var:food_producers_count
        		}
        	}
            change_variable = { name = food_districts_count add = prov_districts_to_build }
            set_variable = {
                name = food_depreciation
                value = {
                    value = var:food_stockpile
                    multiply = food_depreciation_rate
                }
            }
            change_variable = { name = food_stockpile subtract = var:food_depreciation }
            change_variable = { name = food_stockpile add = var:food_produced }
        	set_variable = { name = food_taxed value = food_taxed }
        	change_variable = { name = food_stockpile subtract = var:food_taxed }
        	set_variable = { name = food_taxed_to_gold value = var:food_taxed }
        	if = {
        		limit = { NOT = { county.holder.capital_county = county } }
        		set_variable = { 
        			name = food_taxed_to_capital
        			value = {
        				value = var:food_taxed_to_gold 
        				multiply = 0.25
        			}
        		}
        		change_variable = { name = food_taxed_to_gold subtract = var:food_taxed_to_capital }
        		county.holder.capital_county = { 
        			change_variable = { name = food_imported_from_demesne add = prev.var:food_taxed_to_capital }
        		}
        	}
        	else = {
        		set_variable = { name = food_taxed_to_capital value = 0 }
        	}
        	if = {
        		limit = { county.holder = { is_independent_ruler = no } }
        		set_variable = { name = food_taxed_to_liege value = food_to_liege }		
        		change_variable = { name = food_taxed subtract = var:food_taxed_to_liege }
        		county.holder.liege.capital_county = { 
        			change_variable = { name = food_imported_from_vassals add = prev.var:food_taxed_to_liege } 
        		}
        	}
        	else = {
        		set_variable = { name = food_taxed_to_liege value = 0 }
        	}
        	set_variable = { name = food_exported value = food_exported }
        	change_variable = { name = food_stockpile subtract = var:food_exported }
        	county = { change_variable = { name = food_imported_from_baronies add = prev.var:food_exported } }
        	set_variable = { name = food_demanded value = food_demanded }
        	set_variable = { name = food_consumed value = food_stockpile_excess }
            change_variable = { name = food_stockpile subtract = var:food_consumed }
        	set_variable = {
        		name = food_ratio
        		value = {
                    value = {
                        value = var:food_consumed
                        divide = var:food_demanded
                    }
        		}
        	}
            set_variable = {
                name = goods_depreciation
                value = {
                    value = var:goods_stockpile
                    multiply = goods_depreciation_rate
                }
            }
            change_variable = { name = goods_stockpile subtract = var:goods_depreciation }
            change_variable = { name = goods_stockpile add = var:goods_imported }
        	set_variable = { name = capital_production_multiplier value = capital_production_multiplier }
    	}
    	set_variable = { name = county_manpower value = county_manpower } 
    	random_list = {
    		1 = {
    			trigger_event = { id = demd_pop_fire.1001 days = { 0 365 } }
    		}
    		1500 = {
    		}
    	}
    	if = {
    		limit = {
    			OR = {
    				has_variable = isOnMinorRiver
    				has_variable = isOnMajorRiver
    				is_coastal_county = yes
    			}
    		}
    		random_list = {
    			1 = {
    				trigger_event = { id = demd_pop_flood.1001 days = { 0 365 } }
    			}
    			500 = {
    			}
    		}
    	}
    	if = { 
    		limit = {
    			always = no 
    			has_variable = avalanche_eligible
    		}
    		random_list = {
    			2 = {
    				trigger_event = { id = demd_pop_avalanche.1001 days = { 0 90 } }
    			}
    			1 = {
    				trigger_event = { id = demd_pop_avalanche.1001 days = { 330 365 } }
    			}
    			1000 = {
    			}
    		}
    	}	
        save_temporary_scope_as = home
    	every_in_list = {
    		variable = county_neighbors
    		if = {
    			limit = {
    				prev.var:id = { compare_value < prev.var:id }
    			}
    			if = {
    				limit = {
    					var:population > 0.1
    					scope:home.var:population > 0.1
    				}
    				set_variable = { name = migrationPairwise value = migration_pairwise }
    				clamp_variable = { name = migrationPairwise min = 0 max = scope:home.var:maxPairwise }
    				clamp_variable = { name = migrationPairwise min = 0 max = var:maxPairwise }
    				change_variable = { name = migration_growth add = var:migrationPairwise }
    				scope:home = { change_variable = { name = migration_growth subtract = prev.var:migrationPairwise } }
    			}
    		}
    	}	
    	set_variable = { name = natural_birth_rate value = natural_birth_rate }
        set_variable = { name = total_death_rate value = total_death_rate }
    	set_variable = {
    		name = growth_rate
    		value = {
    			value = var:natural_birth_rate
    			subtract = var:total_death_rate
    		}
    	}
    	clamp_variable = { name = growth_rate min = demd_population_min_growth_rate max = 1 }
        set_variable = { 
    		name = internal_growth 
    		value = {
    			value = var:growth_rate 
    			multiply = var:population 
    		}
    	}
        change_variable = { 
    		name = population 
    		add = var:internal_growth 
    	}
    	clamp_variable = { name = population min = 0.1 max = 1000000 }
    	every_in_list = { variable = county_provinces
    		limit = { combined_building_level > 0 }
        	set_variable = { name = natural_birth_rate value = natural_birth_rate }
            set_variable = { name = total_death_rate value = total_death_rate }
        	set_variable = {
        		name = growth_rate
        		value = {
        			value = var:natural_birth_rate
        			subtract = var:total_death_rate
        		}
        	}
        	clamp_variable = { name = growth_rate min = demd_population_min_growth_rate max = 1 }
            set_variable = { 
        		name = internal_growth 
        		value = {
        			value = var:growth_rate 
        			multiply = var:population 
        		}
        	}
            change_variable = { 
        		name = population 
        		add = var:internal_growth 
        	}
        	clamp_variable = { name = population min = 0.1 max = 1000000 }
    	}
    	every_in_list = { variable = county_provinces
    		limit = { combined_building_level > 0 }
    		change_variable = { name = migration_pull add = migration_pull_delta }
    	}
    	set_variable = {
    		name = maxInternalPairwise
    		value = {
    			value = var:population
    			multiply = var:max_internal_migration_percent
    		}
    	}
    	every_in_list = { variable = county_provinces
    		limit = { combined_building_level > 0 }
    		set_variable = { name = internal_migration_growth value = internal_migration_pairwise }
    		set_variable = {
    			name = internal_migration_growth_percent
    			value = {
    				value = var:internal_migration_growth
    				divide = var:population
    			}
    		}
    	}
    	set_variable = { name = internal_migration_growth value = county_internal_migration_growth_sum }
    	set_variable = {
    		name = internal_migration_growth_percent
    		value = {
    			value = var:internal_migration_growth
    			divide = var:population
    		}
    	}
    	every_in_list = { variable = county_provinces
    		limit = { combined_building_level > 0 }		
            change_variable = { name = population add = var:internal_migration_growth }	
    	}
    	change_variable = { name = population add = var:internal_migration_growth }
    	set_variable = { name = county_population value = county_population }
        if = {
    		limit = {
    			NOT = { has_county_modifier = plague_immunity }
    		}
    		random_list = {
    			0 = { 
    				modifier = {
    					always = yes
    					add = outbreak_risk
    				}
    				trigger_event = { id = demd_pop_disease.1001 days = { 1 30 } }
    			}
    			5000 = {
    			}
    		}
    	}
        if = {
    		limit = { has_county_modifier = plague_present }
            every_in_list = {
                variable = county_neighbors
                limit = { NOT = { has_county_modifier = plague_immunity } }
    			random_list = {
    				50 = {
    					modifier = {
    						NOT = { has_county_modifier = quarantine } 
    						add = 50
    					}
    					add_county_modifier = { modifier = plague_present years = plague_years }
    					add_county_modifier = { modifier = plague_immunity years = plague_immune_years }
    					remove_county_modifier = quarantine
    				}
    				500 = {
    				}
    			}
            }
        }
    	set_variable = { name = effective_tax_rate value = effective_tax_rate }
    	set_variable = { name = food_to_liege_rate value = holder.food_to_liege_rate }
        change_variable = {
            name = public_order
            add = public_order_delta
        }
    	clamp_variable = { name = public_order min = 0 max = 1 }
        change_variable = {
            name = sanitation
            add = sanitation_delta
        }
    	clamp_variable = { name = sanitation min = 0 max = 1 }
        set_variable = {
    		name = goods_producers_max
    		value = {
    			value = var:goods_districts_count
    			multiply = demd_jobs_per_district
    		}
    	}
    	clamp_variable = { name = goods_producers_max min = 0 max = 1000000 }
    	set_variable = { name = goods_producers_count value = 0 }
    	set_variable = { name = unemployed_count value = var:population }
        set_variable = {
            name = temp
            value = {
                value = var:goods_producers_max
                subtract = var:goods_producers_count
            }
        }
        clamp_variable = { name = temp max = var:unemployed_count min = 0 }
        if = {
            limit = {
                var:temp = { compare_value > prev.var:goods_producers_max }
            }
            change_variable = { name = goods_producers_count add = var:goods_producers_max }
            change_variable = { name = unemployed_count subtract = var:goods_producers_max }
        }
        else = {
            change_variable = { name = goods_producers_count add = var:temp }
            change_variable = { name = unemployed_count subtract = var:temp }
        }
    	set_variable = { name = goods_produced_per_capita value = goods_produced_per_capita }
        set_variable = {
            name = goods_produced
            value = {
                value = var:goods_produced_per_capita
                multiply = var:goods_producers_count
            }
        }
        set_variable = { name = produced_trade_value value = produced_trade_value }
        set_variable = { name = trade_power value = trade_power }
        set_variable = { 
            name = trade_value
            value = {
                value = var:produced_trade_value
                add = var:collected_trade_value 
            }
        }
        set_variable = {
            name = food_depreciation
            value = {
                value = var:food_stockpile
                multiply = food_depreciation_rate
            }
        }
        change_variable = { name = food_stockpile subtract = var:food_depreciation }
    	set_variable = {
    		name = food_imported
    		value = {
    			value = var:food_imported_from_baronies
    			add = var:food_imported_from_demesne
    			add = var:food_imported_from_vassals
    		}
    	}
    	change_variable = { name = food_stockpile add = var:food_imported }
    	set_variable = { name = food_imported_from_baronies_display value = var:food_imported_from_baronies }
    	set_variable = { name = food_imported_from_demesne_display value = var:food_imported_from_demesne }
    	set_variable = { name = food_imported_from_vassals_display value = var:food_imported_from_vassals }
    	set_variable = { name = food_imported_from_baronies value = 0 }
    	set_variable = { name = food_imported_from_demesne value = 0 }
    	set_variable = { name = food_imported_from_vassals value = 0 }
    	set_variable = { name = food_demanded value = food_demanded }
    	set_variable = { name = food_consumed value = food_stockpile_excess }
        change_variable = { name = food_stockpile subtract = var:food_consumed }
    	set_variable = {
    		name = food_ratio
    		value = {
                value = {
                    value = var:food_consumed
                    divide = var:food_demanded
                }
    		}
    	}	
        set_variable = {
            name = goods_depreciation
            value = {
                value = var:goods_stockpile
                multiply = goods_depreciation_rate
            }
        }
        change_variable = { name = goods_stockpile subtract = var:goods_depreciation }
        change_variable = { name = goods_stockpile add = var:goods_produced }
        set_variable = {
            name = goods_taxed
            value = {
                value = var:goods_produced
                multiply = var:effective_tax_rate
            }
        }
    	change_variable = { name = goods_stockpile subtract = var:goods_taxed }
    	set_variable = { name = goods_exported value = goods_exported }
    	every_in_list = { variable = county_provinces 
    		limit = { has_variable = food_exported }
    		set_variable = { name = goods_imported value = goods_imported }
    	}
    	change_variable = { name = goods_stockpile subtract = var:goods_exported }
    	set_variable = { name = capital_production_multiplier value = capital_production_multiplier }
        change_variable = { name = goods_districts_count add = county_districts_to_build }
        set_variable = {
            name = population_tax
            value = population_tax
        }
    	set_variable = { name = faith_strength_defense_individual value = faith_strength_defense_individual }
    	change_variable = { name = faith_strength_attack add = faith_strength_attack_delta }	
    	change_variable = { name = faith_strength_defense add = faith_strength_defense_delta }	
    	if = {
    		limit = { has_county_modifier = faith_conversion_in_progress } 
    		change_variable = { 
    			name = faith_conversion_progress 
    			add = yearly_faith_conversion_progress 
    		}
    		if = {
    			limit = { 					
    				OR = {
    					var:faith_conversion_progress < 0 
    					AND = {
    						var:faith_conversion_type = flag:regular
    						NOT = { 
    							any_in_list = {
    								variable = county_neighbors
    								faith = prev.var:converting_faith
    							}
    						}
    					}
    					AND = {
    						var:faith_conversion_type = flag:settler
    						NOT = { var:faith_converting_county.faith = var:converting_faith }
    					}
    					faith = var:converting_faith
    				}
    			}
            	set_variable = { name = faith_conversion_progress value = 100 }
            	set_variable = { name = faith_conversion_max value = 100 }
            	set_variable = { name = converting_faith value = faith }
            	remove_county_modifier = faith_conversion_in_progress 
            	set_variable = { name = faith_conversion_type value = flag:none }
    		}
    		else_if = {
    			limit = { var:faith_conversion_progress = { compare_value > prev.var:faith_conversion_max } }
            	save_scope_as = county 
            	if = {
            		limit = { holder.faith = var:converting_faith }
            		holder = {
            			send_interface_message = {
            				type = event_court_chaplain_task_good
            				title = demd_faith_conversion_good
            				desc = demd_faith_conversion_good_desc
            				right_icon = prev
            				tooltip = demd_faith_conversion_good_tooltip
            			}
            		}
            	}
            	else = {
            		holder = {
            			send_interface_message = {
            				type = event_court_chaplain_task_bad
            				title = demd_faith_conversion_bad
            				desc = demd_faith_conversion_bad_desc
            				right_icon = prev
            				tooltip = demd_faith_conversion_bad_tooltip
            			}
            		}
            	}
            	set_county_faith = var:converting_faith
            	set_variable = { name = faith_conversion_progress value = 100 }
            	set_variable = { name = faith_conversion_max value = 100 }
            	set_variable = { name = converting_faith value = faith }
            	remove_county_modifier = faith_conversion_in_progress 
            	set_variable = { name = faith_conversion_type value = flag:none }
    		}		
    		else = {
    			save_scope_as = home
    			set_variable = { name = temp value = faith_strength_hijack_threshold }
    			set_variable = { name = temp2 value = var:converting_faith }
    			clear_variable_list = contending_faiths
    			every_in_list = {
    				variable = county_neighbors
    				limit = { 
    					NOR = { 
    						faith = prev.faith 
    						faith = prev.var:converting_faith
    					} 
    				}
    				add_to_variable_list = { name = contending_faiths target = faith }			
    			}
    			every_in_list = {
    				variable = contending_faiths
    				scope:home = { 
    					set_variable = { name = contending_faith value = prev }
    					if = {
    						limit = { 
    							var:temp = { compare_value < prev.faith_strength_attack_putative } 
    						} 
    						set_variable = { name = temp2 value = var:contending_faith }
    						set_variable = { name = temp value = faith_strength_attack_putative }
    					}
    				}
    			}
    			if = {
    				limit = { NOT = { var:converting_faith = var:temp2 } }
                	set_variable = { name = converting_faith value = var:temp2 }
                	change_variable = { name = faith_conversion_progress multiply = 0.8 }
                	set_variable = { name = faith_conversion_max value = faith_conversion_max }
                	set_variable = { name = faith_conversion_type value = flag:regular }
    			}
    			random_list = {
    				100 = { }
    				10 = {
    					county = {
    						trigger_event = { id = demd_pop_religious_conversion.0001 months = { 0 12 } }
    					}
    				}
    			}
    		}
    	}
    	else = { 
    		set_variable = { name = converting_faith value = faith }
    		set_variable = { name = temp value = var:faith_strength_defense }
    		save_scope_as = home
    		clear_variable_list = contending_faiths
    		every_in_list = {
    			variable = county_neighbors
    			limit = { NOT = { faith = prev.faith } }
    			prev = { add_to_variable_list = { name = contending_faiths target = prev.faith } }
    		}
    		every_in_list = {
    			variable = contending_faiths
    			scope:home = { 
    				set_variable = { name = contending_faith value = prev }
    				if = {
    					limit = { 
    						var:temp = { compare_value < prev.faith_strength_attack_putative } 
    					} 
    					set_variable = { name = converting_faith value = var:contending_faith }
    					set_variable = { name = temp value = faith_strength_attack_putative }
    				}
    			}
    		}
    		if = {
    			limit = { NOT = { var:converting_faith = faith } }
            	add_county_modifier = { modifier = faith_conversion_in_progress }
            	set_variable = {
            		name = faith_conversion_progress
            		value = {
            			value = yearly_faith_conversion_progress
            			multiply = 3
            		}
            	}
            	set_variable = { name = faith_conversion_max value = faith_conversion_max }
            	set_variable = { name = faith_conversion_type value = flag:regular }
    		}
    	}   
        if = {
            limit = {
    			demd_repress_faith = yes
            }
            add_county_modifier = { modifier = repressing_local_faith } 
        }
        else = {
            remove_county_modifier = repressing_local_faith 
        }
    	set_variable = { name = culture_strength_defense_individual value = culture_strength_defense_individual }
    	change_variable = { name = culture_strength_attack add = culture_strength_attack_delta }
    	change_variable = { name = culture_strength_defense add = culture_strength_defense_delta }	
    	if = {
    		limit = { has_county_modifier = culture_conversion_in_progress }
    		change_variable = { 
    			name = culture_conversion_progress 
    			add = yearly_culture_conversion_progress
    		}
    		if = {
    			limit = { 
    				OR = {
    					var:culture_conversion_progress < 0 
    					AND = {
    						var:culture_conversion_type = flag:regular
    						NOT = { 
    							any_in_list = {
    								variable = county_neighbors
    								culture = prev.var:converting_culture
    							}
    						}
    					}
    					AND = {
    						var:culture_conversion_type = flag:settler
    						NOT = { var:culture_converting_county.culture = var:converting_culture }
    					}
    					culture = var:converting_culture
    				}
    			}				
            	set_variable = { name = culture_conversion_type value = flag:none }
            	set_variable = { name = culture_conversion_progress value = 100 }
            	set_variable = { name = culture_conversion_max value = 100 }
            	set_variable = { name = converting_culture value = culture }
            	remove_county_modifier = culture_conversion_in_progress 
    		}
    		else_if = {
    			limit = { var:culture_conversion_progress = { compare_value > prev.var:culture_conversion_max } }
            	save_scope_as = county 
            	if = {
            		limit = { holder.culture = var:converting_culture }		
            		holder = {
            			send_interface_message = {
            				type = event_court_chaplain_task_good
            				title = demd_culture_conversion_good
            				desc = demd_culture_conversion_good_desc
            				right_icon = prev
            				tooltip = demd_culture_conversion_good_tooltip
            			}
            		}
            	}
            	else = {
            		holder = {
            			send_interface_message = {
            				type = event_court_chaplain_task_bad
            				title = demd_culture_conversion_bad
            				desc = demd_culture_conversion_bad_desc
            				right_icon = prev.county
            				tooltip = demd_culture_conversion_bad_tooltip
            			}
            		}
            	}
            	set_county_culture = var:converting_culture
            	set_variable = { name = culture_conversion_type value = flag:none }
            	set_variable = { name = culture_conversion_progress value = 100 }
            	set_variable = { name = culture_conversion_max value = 100 }
            	set_variable = { name = converting_culture value = culture }
            	remove_county_modifier = culture_conversion_in_progress 
            	if = {
            		limit = { 
            			faith = { has_doctrine_parameter = heritage_link }
            			NOT = { faith.var:heritage_link = culture_group }
            			culture = { has_variable = ancestral_faith }
            		}
            		set_county_faith = culture.var:ancestral_faith 
            	}
    		}
    		else = {
    			save_scope_as = home
    			set_variable = { name = temp value = culture_strength_hijack_threshold }
    			set_variable = { name = temp2 value = var:converting_culture }
    			clear_variable_list = contending_cultures
    			every_in_list = {
    				variable = county_neighbors
    				limit = { 
    					NOR = { 
    						culture = prev.culture 
    						culture = prev.var:converting_culture
    					} 
    				}
    				add_to_variable_list = { name = contending_cultures target = culture }			
    			}
    			every_in_list = {
    				variable = contending_cultures
    				scope:home = { 
    					set_variable = { name = contending_culture value = prev }
    					if = {
    						limit = { 
    							var:temp = { compare_value < prev.culture_strength_attack_putative } 
    						} 
    						set_variable = { name = temp2 value = var:contending_culture }
    						set_variable = { name = temp value = culture_strength_attack_putative }
    					}
    				}
    			}
    			if = {
    				limit = { NOT = { var:converting_culture = var:temp2 } }
                	set_variable = { name = converting_culture value = var:temp2 }
                	set_variable = { name = culture_conversion_type value = flag:regular }
                	change_variable = { name = culture_conversion_progress multiply = 0.8 }
                	set_variable = { name = culture_conversion_max value = culture_conversion_max }	
    			}
    			random_list = {
    				100 = { }
    				10 = {
    					trigger_event = { id = demd_pop_culture_conversion.0001 months = { 0 12 } }
    				}
    			}
    		}
    	}
    	else = {
    		set_variable = { name = converting_culture value = culture }
    		set_variable = { name = temp value = var:culture_strength_defense }
    		save_scope_as = home
    		clear_variable_list = contending_cultures
    		every_in_list = {
    			variable = county_neighbors
    			limit = { NOT = { culture = prev.culture } }
    			prev = { add_to_variable_list = { name = contending_cultures target = prev.culture } }
    		}
    		every_in_list = {
    			variable = contending_cultures
    			scope:home = { 
    				set_variable = { name = contending_culture value = prev }
    				if = {
    					limit = { 
    						var:temp = { compare_value < prev.culture_strength_attack_putative } 
    					} 
    					set_variable = { name = converting_culture value = var:contending_culture }
    					set_variable = { name = temp value = culture_strength_attack_putative }
    				}
    			}
    		}
    		if = {
    			limit = { NOT = { culture = var:converting_culture  } }
            	add_county_modifier = { modifier = culture_conversion_in_progress }
            	set_variable = { name = culture_conversion_type value = flag:regular }
            	set_variable = {
            		name = culture_conversion_progress
            		value = {
            			value = yearly_culture_conversion_progress
            			multiply = 3 
            		}
            	}
            	set_variable = { name = culture_conversion_max value = culture_conversion_max }
    		}
    	}
        if = {
            limit = {
    			demd_repress_culture = yes
            }
            add_county_modifier = { modifier = repressing_local_culture }
        }
        else = {
            remove_county_modifier = repressing_local_culture 
        }
    	if = {
    		limit = {
    			faith.fervor < 0.5 
    			var:faith_strength_defense = { compare_value < prev.heresy_faith_conversion_attack_putative }
    			NOT = { has_county_modifier = faith_conversion_in_progress } 
    		}
    		save_scope_as = home
    		random_list = {
    			1 = { 
                    faith = {
                        religion = {
                            every_faith = {
                                add_to_list = potential_heresies
                            }
                        }
                    }
                    random_in_list = {
                        list = potential_heresies
                        limit = {
                            has_variable = player_created_faith
                            num_county_followers > 0
                            is_valid_heresy = {
                                ORIGIN_FAITH = scope:home.faith
                                HERETICAL_FAITH = this
                            }
                            any_in_list = {
                				list = neaby_same_religion_counties
                				faith = prev
                			}
                        }
                        alternative_limit = {
                            num_county_followers > 0
                            is_preferred_heresy = {
                                ORIGIN_FAITH = scope:home.faith
                                HERETICAL_FAITH = this
                            }
                            any_in_list = {
                				list = neaby_same_religion_counties
                				faith = prev
                			}
                        }
                        alternative_limit = {
                            has_game_rule = strict_regional_heresy
                            is_preferred_heresy = {
                                ORIGIN_FAITH = scope:home.faith
                                HERETICAL_FAITH = this
                            }
                        }
                        alternative_limit = {
                            is_valid_heresy = {
                                ORIGIN_FAITH = scope:home.faith
                                HERETICAL_FAITH = this
                            }
                        }
                        alternative_limit = {
                            always = yes
                        }
                        weight = {
                            base = 50
                            modifier = {
                                factor = 5
                                is_preferred_heresy = {
                                    ORIGIN_FAITH = scope:home.faith
                                    HERETICAL_FAITH = this
                                }
                            }
                            modifier = {
                                factor = 3
                                num_county_followers = 0
                            }
                            modifier = {
                                has_game_rule = strict_regional_heresy
                                NOT = {
                                    is_preferred_heresy = {
                                        ORIGIN_FAITH = scope:home.faith
                                        HERETICAL_FAITH = this
                                    }
                                }
                                factor = 0
                            }           
                        }
                        save_scope_as = heretic_faith
                    }
    				set_variable = { name = faith_conversion_type value = flag:heresy }
    				add_county_modifier = { modifier = faith_conversion_in_progress } 
    				set_variable = { name = converting_faith value = scope:heretic_faith }
    				set_variable = {
    					name = yearly_faith_conversion_progress
    					value = yearly_faith_conversion_progress
    				}
    				set_variable = {
    					name = faith_conversion_progress
    					value = {
    						value = var:yearly_faith_conversion_progress
    						multiply = 2 
    					}
    				}
    				set_variable = { name = faith_conversion_max value = 100 }
    				save_scope_as = county 
    				holder = {
    					send_interface_message = {
    						type = event_court_chaplain_task_bad
    						title = demd_heresy_emerges_bad
    						desc = demd_heresy_emerges_bad_desc
    						left_icon = scope:heretic_faith
    						right_icon = prev.county
    					}
    				}
    			}
    			10 = {
    				modifier = {
    					has_variable = faith_strength_defense
    					add = {
    						value = var:faith_strength_defense
    						multiply = 2
    					}
    				}
    			}
    		}
    	}	
        if = {
            limit = {
                holder = { is_ai = yes }
            }
        	if = {
        		limit = { 
        			county.county_opinion < -15	
        			var:manpower_rate = { compare_value < prev.var:tax_rate }
        			NOT = { has_variable = tax_rate_changed }
        		}
        		demd_decrement_tax_rate = yes
        	}
        	else_if = {
        		limit = { 
        			county.county_opinion > 15	
        			var:manpower_rate = { compare_value > prev.var:tax_rate }
        			NOT = { has_variable = tax_rate_changed }
        		}
        		demd_increment_tax_rate = yes
        	}
        	if = {
        		limit = {
        			county.county_opinion < -15	
        			var:manpower_rate = { compare_value >= prev.var:tax_rate }
        			NOT = { has_variable = manpower_changed }
        		}
        		demd_decrement_manpower_rate = yes
        	}
        	else_if = {
        		limit = {
        			county.county_opinion > 15	
        			var:manpower_rate = { compare_value < prev.var:tax_rate }
        			NOT = { has_variable = manpower_changed }
        		}
        		demd_increment_manpower_rate = yes
        	}
            if = {
        		limit = { 
        			NOR = { 
        				has_variable = religious_tolerance_changed 
        				var:religious_tolerance = 1 				
        			}
        			holder = { ai_zeal > very_low_negative_ai_value }
        		}
        		demd_set_religious_tolerance = { LEVEL = 1 }
        	}
        	else_if = {
        		limit = { 
        			NOR = { 
        				has_variable = religious_tolerance_changed 
        				var:religious_tolerance = 2				
        			}
        			holder = { ai_zeal < very_low_negative_ai_value }
        		}
        		demd_set_religious_tolerance = { LEVEL = 2 }	
        	}
        	if = {
        		limit = { 
        			NOT = { has_variable = cultural_tolerance_changed } 
        		}
        		set_variable = {
        			name = temp	
        			value = {
        				value = var:population
        				multiply = 0.75
        			}
        		}
        		save_scope_as = home
        		if = {
        			limit = {
        				NOT = { var:cultural_tolerance = 1 }
        				NOT = { culture.var:supergroup = holder.culture.var:supergroup }
        				any_in_list = {
        					variable = county_neighbors
        					culture = prev.holder.culture
        					var:population = { compare_value > scope:home.var:temp }
        				}
        			}
        			demd_set_cultural_tolerance = { LEVEL = 1 }
        		}
        		else_if = {
        			limit = {
        				NOT = { var:cultural_tolerance = 2 }
        			}
        			demd_set_cultural_tolerance = { LEVEL = 2 }
        		}
        	}
        	if = {
        		limit = { 
        			NOT = { culture = holder.culture }
        			NOT = { has_county_modifier = culture_conversion_in_progress } 
        			holder.capital_county.culture = holder.culture
        			var:culture_strength_defense = { compare_value < prev.holder.capital_county.culture_strength_attack_settler }
        		}
        		demd_start_settler_conversion = yes
        	}
        	if = {
        		limit = { 
        			NOT = { faith = holder.faith }
        			NOT = { has_county_modifier = faith_conversion_in_progress } 
        			holder.capital_county.faith = holder.faith
        			var:faith_strength_defense = { compare_value < prev.holder.capital_county.faith_strength_attack_missionary }
        		}
        		demd_start_missionary_conversion = yes
        	}
    	}	
    	set_variable = { name = manpower_total_percent value = manpower_total_percent }
    	title_province = { 
            set_variable = {
                name = temp
                value = {
                    value = county.var:population_tax
                }
            }
            remove_all_province_modifier_instances = demd_prov_tax_modifier_huge
            remove_all_province_modifier_instances = demd_prov_tax_modifier_big
            remove_all_province_modifier_instances = demd_prov_tax_modifier_medium
            remove_all_province_modifier_instances = demd_prov_tax_modifier_small
            while = {
                limit = { var:temp > 100 }
                add_province_modifier = demd_prov_tax_modifier_huge
                change_variable = { name = temp subtract = 100 }
            }
            while = {
                limit = { var:temp > 10 }
                add_province_modifier = demd_prov_tax_modifier_big
                change_variable = { name = temp subtract = 10 }
            }
            while = {
                limit = { var:temp > 1 }
                add_province_modifier = demd_prov_tax_modifier_medium
                change_variable = { name = temp subtract = 1 }
            }
            while = {
                limit = { var:temp > 0 }
                add_province_modifier = demd_prov_tax_modifier_small
                change_variable = { name = temp subtract = 0.1 }
            }
    	}
    	every_in_list = { variable = county_provinces
    		if = {
    			limit = { county.title_province = this }
            	set_variable = {
            		name = manpower
            		value = {
            			value = var:population
            			add = county.var:population
            			multiply = county.var:manpower_total_percent
            			multiply = 1000	
            		}
            	}
            	set_variable = { 
            		name = garrison 
            		value = {
            			value = var:manpower
            			multiply = garrison_manpower_percent
            		}
            	} 
            	set_variable = { 
            		name = levy 
            		value = {
            			value = var:manpower
            			multiply = {
            				value = 1
            				subtract = garrison_manpower_percent
            			}
            			multiply = {
            				value = 1
            				subtract = culture.var:percent_maa_by_era
            			}
            		}
            	} 
            	set_variable = { 
            		name = free_manpower 
            		value = {
            			value = var:manpower
            			subtract = var:garrison
            			subtract = var:levy
            		}
            	}
    		}
    		else = {
            	set_variable = {
            		name = manpower
            		value = {
            			value = var:population
            			multiply = county.var:manpower_total_percent
            			multiply = 1000	
            		}
            	}
            	set_variable = { 
            		name = garrison 
            		value = {
            			value = var:manpower
            			multiply = garrison_manpower_percent
            		}
            	} 
            	set_variable = { 
            		name = levy 
            		value = {
            			value = var:manpower
            			subtract = var:garrison
            		}
            	} 
    		}
        	set_variable = { name = temp value = var:garrison }
            remove_all_province_modifier_instances = demd_prov_garrison_modifier_huge
            remove_all_province_modifier_instances = demd_prov_garrison_modifier_big
            remove_all_province_modifier_instances = demd_prov_garrison_modifier_medium
            remove_all_province_modifier_instances = demd_prov_garrison_modifier_small
            while = {
                limit = { var:temp > 6250 }
                add_province_modifier = demd_prov_garrison_modifier_huge
                change_variable = { name = temp subtract = 6250 }
            }
            while = {
                limit = { var:temp > 1250 }
                add_province_modifier = demd_prov_garrison_modifier_big
                change_variable = { name = temp subtract = 1250 }
            }
            while = {
                limit = { var:temp > 250 }
                add_province_modifier = demd_prov_garrison_modifier_medium
                change_variable = { name = temp subtract = 250 }
            }
            while = {
                limit = { var:temp > 100 } 
                add_province_modifier = demd_prov_garrison_modifier_small
                change_variable = { name = temp subtract = 50 }
            }
        	set_variable = { name = temp value = var:levy }
            remove_all_province_modifier_instances = demd_prov_levy_modifier_huge
            remove_all_province_modifier_instances = demd_prov_levy_modifier_big
            remove_all_province_modifier_instances = demd_prov_levy_modifier_medium
            remove_all_province_modifier_instances = demd_prov_levy_modifier_small
            while = {
                limit = { var:temp > 6250 }
                add_province_modifier = demd_prov_levy_modifier_huge
                change_variable = { name = temp subtract = 6250 }
            }
            while = {
                limit = { var:temp > 1250 }
                add_province_modifier = demd_prov_levy_modifier_big
                change_variable = { name = temp subtract = 1250 }
            }
            while = {
                limit = { var:temp > 250 }
                add_province_modifier = demd_prov_levy_modifier_medium
                change_variable = { name = temp subtract = 250 }
            }
            while = {
                limit = { var:temp > 100 } 
                add_province_modifier = demd_prov_levy_modifier_small
                change_variable = { name = temp subtract = 50 }
            }
            set_variable = { name = temp value = supply_limit }
            remove_all_province_modifier_instances = demd_prov_supply_limit_modifier_huge
        	remove_all_province_modifier_instances = demd_prov_supply_limit_modifier_big
        	remove_all_province_modifier_instances = demd_prov_supply_limit_modifier_medium
        	remove_all_province_modifier_instances = demd_prov_supply_limit_modifier_small
            while = {
                limit = { var:temp > 12500 }
                add_province_modifier = demd_prov_supply_limit_modifier_huge
                change_variable = { name = temp subtract = 12500 }
            }
            while = {
                limit = { var:temp > 2500 }
                add_province_modifier = demd_prov_supply_limit_modifier_big
                change_variable = { name = temp subtract = 2500 }
            }
            while = {
                limit = { var:temp > 500 }
                add_province_modifier = demd_prov_supply_limit_modifier_medium
                change_variable = { name = temp subtract = 500 }
            }
            while = {
                limit = { var:temp > 100 }
                add_province_modifier = demd_prov_supply_limit_modifier_small
                change_variable = { name = temp subtract = 100 }
            }
    	}
    	set_variable = { name = temp value = research_produced }
    	remove_all_county_modifier_instances = demd_prov_development_modifier_big
    	remove_all_county_modifier_instances = demd_prov_development_modifier_medium
    	remove_all_county_modifier_instances = demd_prov_development_modifier_small
    	while = {
    		limit = { var:temp > 1 }
    		add_county_modifier = demd_prov_development_modifier_big 
    		change_variable = { name = temp subtract = 1 }
    	}
    	while = {
    		limit = { var:temp > 0.25 }
    		add_county_modifier = demd_prov_development_modifier_medium 
    		change_variable = { name = temp subtract = 0.25 }
    	}
    	while = {
    		limit = { var:temp > 0.05 }
    		add_county_modifier = demd_prov_development_modifier_small
    		change_variable = { name = temp subtract = 0.05 }
    	}
	}
}

